AGU	0	22984	1
AGU	22984	46132	3
BCN	520	77204	1
BCN	77204	154823	3
BCS	5388	36416	1
BCS	36416	65150	3
CAM	68	24425	1
CAM	24425	46745	3
CHP	19566	60118	1
CHP	60118	101998	3
CHH	6084	71042	1
CHH	71042	135561	3
CDMX	23615	218581	1
CDMX	218581	430166	3
COA	11327	53507	1
COA	53507	93425	3
COL	3456	25059	1
COL	25059	45649	3
DUR	26615	46915	1
DUR	46915	67191	3
GUA	16142	77175	1
GUA	77175	138845	3
GRO	38446	69693	1
GRO	69693	101310	3
HID	17607	82915	1
HID	82915	154497	3
JAL	68204	171559	1
JAL	171559	272766	3
MEX	263548	573757	1
MEX	573757	908454	3
MIC	84914	128335	1
MIC	128335	174738	3
MOR	34820	75084	1
MOR	75084	119429	3
NAY	24492	52041	1
NAY	52041	78091	3
NLE	38740	144763	1
NLE	144763	243160	3
OAX	67219	140496	1
OAX	140496	219597	3
PUE	90297	173400	1
PUE	173400	264582	3
QUE	31065	98977	1
QUE	98977	167998	3
ROO	27803	100117	1
ROO	100117	166658	3
SLP	52132	83931	1
SLP	83931	115272	3
SIN	75662	126942	1
SIN	126942	172451	3
SON	50426	100323	1
SON	100323	149288	3
TAB	47228	77315	1
TAB	77315	106610	3
TAM	81509	129094	1
TAM	129094	178634	3
TLA	24489	45707	1
TLA	45707	68595	3
VER	229119	329640	1
VER	329640	433606	3
YUC	40025	74827	1
YUC	74827	109898	3
ZAC	42421	59117	1
ZAC	59117	75722	3
